{
  "tasks": [
    {
      "id": "123",
      "name": "Learn HTML",
      "completed": true
    },
    {
      "id": "234",
      "name": "Learn CSS",
      "completed": true
    },
    {
      "id": "345",
      "name": "Learn JS",
      "completed": false
    },
    {
      "id": "456",
      "name": "Learn AngularJS",
      "completed": false
    }
  ],
  "users": [
    {
      "id": "123",
      "username": "Anna",
      "completed": true
    },
    {
      "id": "345",
      "username": "Piotr",
      "completed": false
    },
    {
      "username": "Jan",
      "id": "1632489214987"
    },
    {
      "username": "Sylwia",
      "id": "1632489414500"
    },
    {
      "username": "222",
      "id": "1632491109202"
    },
    {
      "username": "add",
      "id": "1632728456751"
    }
  ]
}